/home/shafeekpm/Videos/sep_1_Rainguage_with_UV_Try_1/LoRaWAN_End_Node/Core/Src/main.c:108:6:SystemClock_Config	88	static,ignoring_inline_asm
/home/shafeekpm/Videos/sep_1_Rainguage_with_UV_Try_1/LoRaWAN_End_Node/Core/Src/main.c:64:5:main	8	static
/home/shafeekpm/Videos/sep_1_Rainguage_with_UV_Try_1/LoRaWAN_End_Node/Core/Src/main.c:156:6:Error_Handler	0	static,ignoring_inline_asm
