/home/shafeekpm/Videos/sep_1_Rainguage_with_UV_Try_1/LoRaWAN_End_Node/Core/Src/sys_debug.c:97:6:DBG_ConfigForLpm.part.0	8	static
/home/shafeekpm/Videos/sep_1_Rainguage_with_UV_Try_1/LoRaWAN_End_Node/Core/Src/sys_debug.c:65:6:DBG_Disable	8	static
/home/shafeekpm/Videos/sep_1_Rainguage_with_UV_Try_1/LoRaWAN_End_Node/Core/Src/sys_debug.c:97:6:DBG_ConfigForLpm	8	static
/home/shafeekpm/Videos/sep_1_Rainguage_with_UV_Try_1/LoRaWAN_End_Node/Core/Src/sys_debug.c:137:6:DBG_ProbesInit	0	static
