/home/shafeekpm/Videos/sep_1_Rainguage_with_UV_Try_1/LoRaWAN_End_Node/STM32CubeIDE/syscalls.c:73:6:initialise_monitor_handles	0	static
/home/shafeekpm/Videos/sep_1_Rainguage_with_UV_Try_1/LoRaWAN_End_Node/STM32CubeIDE/syscalls.c:77:5:_getpid	0	static
/home/shafeekpm/Videos/sep_1_Rainguage_with_UV_Try_1/LoRaWAN_End_Node/STM32CubeIDE/syscalls.c:82:5:_kill	8	static
/home/shafeekpm/Videos/sep_1_Rainguage_with_UV_Try_1/LoRaWAN_End_Node/STM32CubeIDE/syscalls.c:88:6:_exit	8	static
/home/shafeekpm/Videos/sep_1_Rainguage_with_UV_Try_1/LoRaWAN_End_Node/STM32CubeIDE/syscalls.c:94:27:_read	16	static
/home/shafeekpm/Videos/sep_1_Rainguage_with_UV_Try_1/LoRaWAN_End_Node/STM32CubeIDE/syscalls.c:106:27:_write	16	static
/home/shafeekpm/Videos/sep_1_Rainguage_with_UV_Try_1/LoRaWAN_End_Node/STM32CubeIDE/syscalls.c:117:9:_sbrk	8	static
/home/shafeekpm/Videos/sep_1_Rainguage_with_UV_Try_1/LoRaWAN_End_Node/STM32CubeIDE/syscalls.c:140:5:_close	0	static
/home/shafeekpm/Videos/sep_1_Rainguage_with_UV_Try_1/LoRaWAN_End_Node/STM32CubeIDE/syscalls.c:146:5:_fstat	0	static
/home/shafeekpm/Videos/sep_1_Rainguage_with_UV_Try_1/LoRaWAN_End_Node/STM32CubeIDE/syscalls.c:152:5:_isatty	0	static
/home/shafeekpm/Videos/sep_1_Rainguage_with_UV_Try_1/LoRaWAN_End_Node/STM32CubeIDE/syscalls.c:157:5:_lseek	0	static
/home/shafeekpm/Videos/sep_1_Rainguage_with_UV_Try_1/LoRaWAN_End_Node/STM32CubeIDE/syscalls.c:162:5:_open	0	static
/home/shafeekpm/Videos/sep_1_Rainguage_with_UV_Try_1/LoRaWAN_End_Node/STM32CubeIDE/syscalls.c:168:5:_wait	8	static
/home/shafeekpm/Videos/sep_1_Rainguage_with_UV_Try_1/LoRaWAN_End_Node/STM32CubeIDE/syscalls.c:174:5:_unlink	8	static
/home/shafeekpm/Videos/sep_1_Rainguage_with_UV_Try_1/LoRaWAN_End_Node/STM32CubeIDE/syscalls.c:180:5:_times	0	static
/home/shafeekpm/Videos/sep_1_Rainguage_with_UV_Try_1/LoRaWAN_End_Node/STM32CubeIDE/syscalls.c:185:5:_stat	0	static
/home/shafeekpm/Videos/sep_1_Rainguage_with_UV_Try_1/LoRaWAN_End_Node/STM32CubeIDE/syscalls.c:191:5:_link	8	static
/home/shafeekpm/Videos/sep_1_Rainguage_with_UV_Try_1/LoRaWAN_End_Node/STM32CubeIDE/syscalls.c:197:5:_fork	8	static
/home/shafeekpm/Videos/sep_1_Rainguage_with_UV_Try_1/LoRaWAN_End_Node/STM32CubeIDE/syscalls.c:203:5:_execve	8	static
