/home/shafeekpm/Videos/sep_1_Rainguage_with_UV_Try_1/LoRaWAN_End_Node/Middlewares/Third_Party/LoRaWAN/LmHandler/NvmDataMgmt.c:52:6:NvmDataMgmtEvent	0	static
/home/shafeekpm/Videos/sep_1_Rainguage_with_UV_Try_1/LoRaWAN_End_Node/Middlewares/Third_Party/LoRaWAN/LmHandler/NvmDataMgmt.c:59:10:NvmDataMgmtStore	0	static
/home/shafeekpm/Videos/sep_1_Rainguage_with_UV_Try_1/LoRaWAN_End_Node/Middlewares/Third_Party/LoRaWAN/LmHandler/NvmDataMgmt.c:154:10:NvmDataMgmtRestore	0	static
/home/shafeekpm/Videos/sep_1_Rainguage_with_UV_Try_1/LoRaWAN_End_Node/Middlewares/Third_Party/LoRaWAN/LmHandler/NvmDataMgmt.c:221:6:NvmDataMgmtFactoryReset	0	static
