/home/shafeekpm/Videos/sep_1_Rainguage_with_UV_Try_1/LoRaWAN_End_Node/Drivers/STM32L0xx_HAL_Driver/Src/stm32l0xx_hal_gpio.c:167:6:HAL_GPIO_Init	48	static
/home/shafeekpm/Videos/sep_1_Rainguage_with_UV_Try_1/LoRaWAN_End_Node/Drivers/STM32L0xx_HAL_Driver/Src/stm32l0xx_hal_gpio.c:292:6:HAL_GPIO_DeInit	48	static
/home/shafeekpm/Videos/sep_1_Rainguage_with_UV_Try_1/LoRaWAN_End_Node/Drivers/STM32L0xx_HAL_Driver/Src/stm32l0xx_hal_gpio.c:373:15:HAL_GPIO_ReadPin	0	static
/home/shafeekpm/Videos/sep_1_Rainguage_with_UV_Try_1/LoRaWAN_End_Node/Drivers/STM32L0xx_HAL_Driver/Src/stm32l0xx_hal_gpio.c:409:6:HAL_GPIO_WritePin	0	static
/home/shafeekpm/Videos/sep_1_Rainguage_with_UV_Try_1/LoRaWAN_End_Node/Drivers/STM32L0xx_HAL_Driver/Src/stm32l0xx_hal_gpio.c:433:6:HAL_GPIO_TogglePin	0	static
/home/shafeekpm/Videos/sep_1_Rainguage_with_UV_Try_1/LoRaWAN_End_Node/Drivers/STM32L0xx_HAL_Driver/Src/stm32l0xx_hal_gpio.c:460:19:HAL_GPIO_LockPin	8	static
/home/shafeekpm/Videos/sep_1_Rainguage_with_UV_Try_1/LoRaWAN_End_Node/Drivers/STM32L0xx_HAL_Driver/Src/stm32l0xx_hal_gpio.c:508:13:HAL_GPIO_EXTI_Callback	0	static
/home/shafeekpm/Videos/sep_1_Rainguage_with_UV_Try_1/LoRaWAN_End_Node/Drivers/STM32L0xx_HAL_Driver/Src/stm32l0xx_hal_gpio.c:493:6:HAL_GPIO_EXTI_IRQHandler	8	static
